1 10 20
1 10 20
100 200 125
201 210 89
900 1000 174
200 100 125
10 100 119
51 100 119
1 10 20
1 20 21
1 30 112
40 50 110
40 45 110
30 50 110
710821 841261 525
945049 154 525
280275 532067 470
617749 586669 447
158627 720020 509
778330 538847 509
859131 671094 525
304626 734710 509
450471 744121 509
990707 641074 525
455679 653910 509
633405 973297 525
34047 505716 449
315478 292641 384
884090 971240 507
334343 652256 509
137202 358630 443
854604 510036 525
562461 461569 470
510458 364503 449
678355 4906 509
549126 41330 470
570499 24073 470
747591 808465 468
512862 114128 470
323436 231299 407
543560 892702 525
790561 392692 509
797488 514368 509
821963 514314 509
858903 811555 525
382673 955979 525
122912 272805 443
586472 197042 470
377615 850690 525
376439 149415 443
629873 143406 509
224087 25441 386
193884 966006 525
38182 875248 525
627856 984610 525
672390 338073 509
438134 205762 449
976677 100766 525
349307 348673 291
145530 524162 470
488482 409782 449
299791 207107 443
548833 926804 525
87038 830534 509
555706 829402 509
539046 790593 509
297364 339056 384
793963 445228 509
422323 859460 525
708723 233759 509
493517 28063 449
439795 875617 525
826337 455610 509
843854 419195 525
982472 960952 458
822722 513726 509
905182 456343 525
22213 146708 375
311179 131796 443
630832 711032 504
640634 602895 509
623043 882930 525
655250 485363 509
961706 50540 525
302326 878587 525
386919 300243 441
579308 378002 470
203648 617245 470
623819 565461 447
486644 306156 449
225948 359040 443
512928 284605 470
786326 490615 509
352339 376335 410
168758 327447 443
398907 306408 441
653341 595808 509
762303 270102 509
582066 383168 470
460041 353308 449
782122 436043 509
295884 987067 525
486664 577117 470
891553 333610 525
310320 428707 449
800786 361001 509
66620 524482 470
39464 71779 340
961809 481872 525
719002 142036 509
861041 457425 525
594138 936865 525
157151 247312 443
834557 333560 509
642900 815685 504
553902 392480 470
995155 857398 507
309137 95018 443
321183 109047 443
400820 346272 436
20803 442672 449
358577 303956 441
729619 506910 509
373919 720038 509
683346 577826 509
410054 323616 449
572694 971316 525
351733 768123 509
252011 642477 509
441269 399848 449
247641 473674 449
946883 610761 525
304098 710408 509
202606 536422 470
912939 53421 525
537958 716924 509
588263 355170 470
475478 802169 509
412226 847884 525
896566 229252 525
171071 458581 449
38271 436701 449
792300 536893 509
211505 481753 449
820824 660309 504
96581 755041 509
844114 763080 525
505903 391198 449
347597 524622 470
675290 519719 509
378888 393066 436
523597 429190 470
688815 310778 509
231524 962049 525
667758 864421 525
390082 82670 443
505933 720971 509
653072 58287 509
542846 251485 470
173614 103288 383
261710 413898 449
88155 561398 470
722243 534578 509
946256 307640 525
74567 673780 509
145290 679538 509
475415 782652 509
944792 200144 525
165840 604730 470
525677 878237 525
114254 702049 509
400729 588199 470
785765 573730 509
274441 438925 449
242935 84753 443
944154 231172 525
738870 268371 509
619905 784277 509
831263 199152 509
44124 943447 525
666407 922658 525
357210 165481 443
339313 936980 525
895692 494047 525
870160 35034 525
53844 28572 340
393100 72627 443
107173 896897 525
567235 936981 525
199886 417304 449
500274 9756 449
418695 930062 525
531372 277375 470
377083 431969 449
460605 851962 525
508866 934347 525
570922 125840 470
464841 547677 470
508441 58585 449
540638 941236 525
87615 80476 333
921323 539740 525
887070 129206 525
726283 110906 509
332748 915268 525
717411 248697 509
819254 22488 509
497523 479243 426
629698 150128 509
143777 809516 509
541440 58958 470
777926 95829 509
307624 608501 470
709774 306981 509
441458 804172 509
588633 230438 470
876240 366311 525
502693 207645 449
897152 240673 525
689370 144265 509
327217 336894 366
911667 811680 525
675001 348215 509
297673 777789 509
75833 659551 509
154604 378213 443
136580 761267 509
949694 333255 525
662720 575579 509
408083 673842 509
587679 645786 509
940728 475641 525
661147 344430 509
383423 263198 441
531921 938011 525
443783 319643 449
5653 386627 443
738531 162643 509
931950 152603 525
715915 341586 509
680936 379536 509
698697 964123 525
3579 171581 383
